[gd_scene load_steps=8 format=3 uid="uid://jd4yb0dvke6c"]

[ext_resource type="Texture2D" uid="uid://bb6hoqstjf7cs" path="res://Images/Chargement/Tectomagicienne.bmp" id="1_8uxho"]
[ext_resource type="Script" path="res://Scripts/Load.gd" id="1_a8rmm"]
[ext_resource type="Shader" path="res://Shaders/chroma-key.gdshader" id="2_4qa5v"]

[sub_resource type="StyleBoxFlat" id="StyleBoxFlat_xdtp8"]
bg_color = Color(0, 0, 0, 1)

[sub_resource type="Gradient" id="Gradient_cqgau"]
colors = PackedColorArray(0.718859, 0.470034, 0.26289, 1, 0.909936, 0.645811, 0.504267, 1)

[sub_resource type="GradientTexture2D" id="GradientTexture2D_bfo7s"]
gradient = SubResource("Gradient_cqgau")

[sub_resource type="ShaderMaterial" id="ShaderMaterial_amsqw"]
shader = ExtResource("2_4qa5v")
shader_parameter/u_color_key = null
shader_parameter/u_replacement_color = Color(0, 0, 0, 0)
shader_parameter/tolerance = 0.05

[node name="Load" type="CanvasLayer"]
follow_viewport_enabled = true
script = ExtResource("1_a8rmm")

[node name="Panel" type="Panel" parent="."]
custom_minimum_size = Vector2(20, 20)
anchors_preset = 15
anchor_right = 1.0
anchor_bottom = 1.0
grow_horizontal = 2
grow_vertical = 2
size_flags_vertical = 3
theme_override_styles/panel = SubResource("StyleBoxFlat_xdtp8")

[node name="TextureProgressBar" type="TextureProgressBar" parent="Panel"]
layout_mode = 0
offset_left = 139.0
offset_top = 631.0
offset_right = 1163.0
offset_bottom = 721.0
nine_patch_stretch = true
texture_progress = SubResource("GradientTexture2D_bfo7s")

[node name="Sprite2D" type="Sprite2D" parent="Panel"]
texture_repeat = 1
material = SubResource("ShaderMaterial_amsqw")
position = Vector2(139, 0)
scale = Vector2(1, 0.938802)
texture = ExtResource("1_8uxho")
centered = false
