[gd_scene load_steps=25 format=3 uid="uid://dk1gidjg2xr1o"]

[ext_resource type="Script" path="res://Scripts/Main.gd" id="1_cx66j"]
[ext_resource type="Shader" path="res://Shaders/chroma-key.gdshader" id="2_u4bwu"]
[ext_resource type="Texture2D" uid="uid://d1x1xp3l8y3nv" path="res://Images/Terrains/Plaine.bmp" id="3_jql4b"]
[ext_resource type="Texture2D" uid="uid://dclw1htt4i5da" path="res://Images/Decors/Ressources.bmp" id="4_kwpp5"]
[ext_resource type="Script" path="res://Scripts/Map.gd" id="5_4np4m"]
[ext_resource type="PackedScene" uid="uid://b0lf1dk2exqf2" path="res://Scenes/character.tscn" id="5_ik3fc"]
[ext_resource type="Script" path="res://Scripts/Camera2D.gd" id="6_2sxgy"]
[ext_resource type="Script" path="res://Scripts/Path.gd" id="7_3c064"]
[ext_resource type="Script" path="res://Scripts/Player.gd" id="8_84he5"]
[ext_resource type="Texture2D" uid="uid://cfqgj2dgj1rhf" path="res://Images/Persos/FF7-Cloud.bmp" id="9_2k4vs"]
[ext_resource type="PackedScene" uid="uid://cgbal8o5y7slk" path="res://Scenes/hud.tscn" id="11_5gyla"]
[ext_resource type="PackedScene" uid="uid://uly4gtffpowm" path="res://Scenes/building.tscn" id="12_3vj5c"]

[sub_resource type="ShaderMaterial" id="ShaderMaterial_5bsop"]
shader = ExtResource("2_u4bwu")
shader_parameter/u_color_key = null
shader_parameter/u_replacement_color = Color(0, 0, 0, 0)
shader_parameter/tolerance = 0.05

[sub_resource type="TileSetAtlasSource" id="TileSetAtlasSource_qstm0"]
texture = ExtResource("3_jql4b")
0:0/0 = 0
0:0/0/terrain_set = 0
0:0/0/terrain = 0
0:0/0/physics_layer_0/linear_velocity = Vector2(0, 0)
0:0/0/physics_layer_0/angular_velocity = 0.0
0:0/0/terrains_peering_bit/right_side = 0
0:0/0/terrains_peering_bit/bottom_side = 0
0:0/0/terrains_peering_bit/left_side = 0
0:0/0/terrains_peering_bit/top_side = 0
0:0/0/custom_data_0 = 1.0
0:1/0 = 0
0:1/0/terrain_set = 0
0:1/0/terrain = 1
0:1/0/physics_layer_0/linear_velocity = Vector2(0, 0)
0:1/0/physics_layer_0/angular_velocity = 0.0
0:1/0/terrains_peering_bit/right_side = 0
0:1/0/terrains_peering_bit/bottom_side = 0
0:1/0/terrains_peering_bit/left_side = 0
0:1/0/terrains_peering_bit/top_side = 0
0:1/0/custom_data_0 = 1.0
0:1/0/custom_data_1 = 0.88
1:1/0 = 0
1:1/0/terrain_set = 0
1:1/0/terrain = 1
1:1/0/physics_layer_0/linear_velocity = Vector2(0, 0)
1:1/0/physics_layer_0/angular_velocity = 0.0
1:1/0/terrains_peering_bit/right_side = 1
1:1/0/terrains_peering_bit/bottom_side = 1
1:1/0/terrains_peering_bit/left_side = 1
1:1/0/terrains_peering_bit/top_side = 1
1:1/0/custom_data_0 = 1.0
1:1/0/custom_data_1 = 0.88
2:1/0 = 0
2:1/0/terrain_set = 0
2:1/0/terrain = 1
2:1/0/physics_layer_0/linear_velocity = Vector2(0, 0)
2:1/0/physics_layer_0/angular_velocity = 0.0
2:1/0/terrains_peering_bit/right_side = 0
2:1/0/terrains_peering_bit/bottom_side = 1
2:1/0/terrains_peering_bit/left_side = 0
2:1/0/terrains_peering_bit/top_side = 0
2:1/0/custom_data_0 = 1.0
2:1/0/custom_data_1 = 0.88
3:1/0 = 0
3:1/0/terrain_set = 0
3:1/0/terrain = 1
3:1/0/physics_layer_0/linear_velocity = Vector2(0, 0)
3:1/0/physics_layer_0/angular_velocity = 0.0
3:1/0/terrains_peering_bit/right_side = 0
3:1/0/terrains_peering_bit/bottom_side = 0
3:1/0/terrains_peering_bit/left_side = 0
3:1/0/terrains_peering_bit/top_side = 1
3:1/0/custom_data_0 = 1.0
3:1/0/custom_data_1 = 0.88
4:1/0 = 0
4:1/0/terrain_set = 0
4:1/0/terrain = 1
4:1/0/physics_layer_0/linear_velocity = Vector2(0, 0)
4:1/0/physics_layer_0/angular_velocity = 0.0
4:1/0/terrains_peering_bit/right_side = 1
4:1/0/terrains_peering_bit/bottom_side = 0
4:1/0/terrains_peering_bit/left_side = 0
4:1/0/terrains_peering_bit/top_side = 0
4:1/0/custom_data_0 = 1.0
4:1/0/custom_data_1 = 0.88
5:1/0 = 0
5:1/0/terrain_set = 0
5:1/0/terrain = 1
5:1/0/physics_layer_0/linear_velocity = Vector2(0, 0)
5:1/0/physics_layer_0/angular_velocity = 0.0
5:1/0/terrains_peering_bit/right_side = 0
5:1/0/terrains_peering_bit/bottom_side = 0
5:1/0/terrains_peering_bit/left_side = 1
5:1/0/terrains_peering_bit/top_side = 0
5:1/0/custom_data_0 = 1.0
5:1/0/custom_data_1 = 0.88
6:1/0 = 0
6:1/0/terrain_set = 0
6:1/0/terrain = 1
6:1/0/physics_layer_0/linear_velocity = Vector2(0, 0)
6:1/0/physics_layer_0/angular_velocity = 0.0
6:1/0/terrains_peering_bit/right_side = 0
6:1/0/terrains_peering_bit/bottom_side = 1
6:1/0/terrains_peering_bit/left_side = 0
6:1/0/terrains_peering_bit/top_side = 1
6:1/0/custom_data_0 = 1.0
6:1/0/custom_data_1 = 0.88
7:1/0 = 0
7:1/0/terrain_set = 0
7:1/0/terrain = 1
7:1/0/physics_layer_0/linear_velocity = Vector2(0, 0)
7:1/0/physics_layer_0/angular_velocity = 0.0
7:1/0/terrains_peering_bit/right_side = 1
7:1/0/terrains_peering_bit/bottom_side = 0
7:1/0/terrains_peering_bit/left_side = 1
7:1/0/terrains_peering_bit/top_side = 0
7:1/0/custom_data_0 = 1.0
7:1/0/custom_data_1 = 0.88
8:1/0 = 0
8:1/0/terrain_set = 0
8:1/0/terrain = 1
8:1/0/physics_layer_0/linear_velocity = Vector2(0, 0)
8:1/0/physics_layer_0/angular_velocity = 0.0
8:1/0/terrains_peering_bit/right_side = 1
8:1/0/terrains_peering_bit/bottom_side = 1
8:1/0/terrains_peering_bit/left_side = 1
8:1/0/terrains_peering_bit/top_side = 0
8:1/0/custom_data_0 = 1.0
8:1/0/custom_data_1 = 0.88
9:1/0 = 0
9:1/0/terrain_set = 0
9:1/0/terrain = 1
9:1/0/physics_layer_0/linear_velocity = Vector2(0, 0)
9:1/0/physics_layer_0/angular_velocity = 0.0
9:1/0/terrains_peering_bit/right_side = 1
9:1/0/terrains_peering_bit/bottom_side = 0
9:1/0/terrains_peering_bit/left_side = 1
9:1/0/terrains_peering_bit/top_side = 1
9:1/0/custom_data_0 = 1.0
9:1/0/custom_data_1 = 0.88
10:1/0 = 0
10:1/0/terrain_set = 0
10:1/0/terrain = 1
10:1/0/physics_layer_0/linear_velocity = Vector2(0, 0)
10:1/0/physics_layer_0/angular_velocity = 0.0
10:1/0/terrains_peering_bit/right_side = 1
10:1/0/terrains_peering_bit/bottom_side = 1
10:1/0/terrains_peering_bit/left_side = 0
10:1/0/terrains_peering_bit/top_side = 1
10:1/0/custom_data_0 = 1.0
10:1/0/custom_data_1 = 0.88
11:1/0 = 0
11:1/0/terrain_set = 0
11:1/0/terrain = 1
11:1/0/physics_layer_0/linear_velocity = Vector2(0, 0)
11:1/0/physics_layer_0/angular_velocity = 0.0
11:1/0/terrains_peering_bit/right_side = 0
11:1/0/terrains_peering_bit/bottom_side = 1
11:1/0/terrains_peering_bit/left_side = 1
11:1/0/terrains_peering_bit/top_side = 1
11:1/0/custom_data_0 = 1.0
11:1/0/custom_data_1 = 0.88
12:1/0 = 0
12:1/0/terrain_set = 0
12:1/0/terrain = 1
12:1/0/physics_layer_0/linear_velocity = Vector2(0, 0)
12:1/0/physics_layer_0/angular_velocity = 0.0
12:1/0/terrains_peering_bit/right_side = 1
12:1/0/terrains_peering_bit/bottom_side = 1
12:1/0/terrains_peering_bit/left_side = 0
12:1/0/terrains_peering_bit/top_side = 0
12:1/0/custom_data_0 = 1.0
12:1/0/custom_data_1 = 0.88
13:1/0 = 0
13:1/0/terrain_set = 0
13:1/0/terrain = 1
13:1/0/physics_layer_0/linear_velocity = Vector2(0, 0)
13:1/0/physics_layer_0/angular_velocity = 0.0
13:1/0/terrains_peering_bit/right_side = 0
13:1/0/terrains_peering_bit/bottom_side = 1
13:1/0/terrains_peering_bit/left_side = 1
13:1/0/terrains_peering_bit/top_side = 0
13:1/0/custom_data_0 = 1.0
13:1/0/custom_data_1 = 0.88
14:1/0 = 0
14:1/0/terrain_set = 0
14:1/0/terrain = 1
14:1/0/physics_layer_0/linear_velocity = Vector2(0, 0)
14:1/0/physics_layer_0/angular_velocity = 0.0
14:1/0/terrains_peering_bit/right_side = 1
14:1/0/terrains_peering_bit/bottom_side = 0
14:1/0/terrains_peering_bit/left_side = 0
14:1/0/terrains_peering_bit/top_side = 1
14:1/0/custom_data_0 = 1.0
14:1/0/custom_data_1 = 0.88
15:1/0 = 0
15:1/0/terrain_set = 0
15:1/0/terrain = 1
15:1/0/physics_layer_0/linear_velocity = Vector2(0, 0)
15:1/0/physics_layer_0/angular_velocity = 0.0
15:1/0/terrains_peering_bit/right_side = 0
15:1/0/terrains_peering_bit/bottom_side = 0
15:1/0/terrains_peering_bit/left_side = 1
15:1/0/terrains_peering_bit/top_side = 1
15:1/0/custom_data_0 = 1.0
15:1/0/custom_data_1 = 0.88
0:2/0 = 0
0:2/0/terrain_set = 0
0:2/0/terrain = 2
0:2/0/physics_layer_0/linear_velocity = Vector2(0, 0)
0:2/0/physics_layer_0/angular_velocity = 0.0
0:2/0/terrains_peering_bit/right_side = 0
0:2/0/terrains_peering_bit/bottom_side = 0
0:2/0/terrains_peering_bit/left_side = 0
0:2/0/terrains_peering_bit/top_side = 0
0:2/0/custom_data_0 = 1.1
1:2/0 = 0
1:2/0/terrain_set = 0
1:2/0/terrain = 2
1:2/0/physics_layer_0/linear_velocity = Vector2(0, 0)
1:2/0/physics_layer_0/angular_velocity = 0.0
1:2/0/terrains_peering_bit/right_side = 2
1:2/0/terrains_peering_bit/bottom_side = 2
1:2/0/terrains_peering_bit/left_side = 2
1:2/0/terrains_peering_bit/top_side = 2
1:2/0/custom_data_0 = 1.1
2:2/0 = 0
2:2/0/terrain_set = 0
2:2/0/terrain = 2
2:2/0/physics_layer_0/linear_velocity = Vector2(0, 0)
2:2/0/physics_layer_0/angular_velocity = 0.0
2:2/0/terrains_peering_bit/right_side = 0
2:2/0/terrains_peering_bit/bottom_side = 2
2:2/0/terrains_peering_bit/left_side = 0
2:2/0/terrains_peering_bit/top_side = 0
2:2/0/custom_data_0 = 1.1
3:2/0 = 0
3:2/0/terrain_set = 0
3:2/0/terrain = 2
3:2/0/physics_layer_0/linear_velocity = Vector2(0, 0)
3:2/0/physics_layer_0/angular_velocity = 0.0
3:2/0/terrains_peering_bit/right_side = 0
3:2/0/terrains_peering_bit/bottom_side = 0
3:2/0/terrains_peering_bit/left_side = 0
3:2/0/terrains_peering_bit/top_side = 2
3:2/0/custom_data_0 = 1.1
4:2/0 = 0
4:2/0/terrain_set = 0
4:2/0/terrain = 2
4:2/0/physics_layer_0/linear_velocity = Vector2(0, 0)
4:2/0/physics_layer_0/angular_velocity = 0.0
4:2/0/terrains_peering_bit/right_side = 2
4:2/0/terrains_peering_bit/bottom_side = 0
4:2/0/terrains_peering_bit/left_side = 0
4:2/0/terrains_peering_bit/top_side = 0
4:2/0/custom_data_0 = 1.1
5:2/0 = 0
5:2/0/terrain_set = 0
5:2/0/terrain = 2
5:2/0/physics_layer_0/linear_velocity = Vector2(0, 0)
5:2/0/physics_layer_0/angular_velocity = 0.0
5:2/0/terrains_peering_bit/right_side = 0
5:2/0/terrains_peering_bit/bottom_side = 0
5:2/0/terrains_peering_bit/left_side = 2
5:2/0/terrains_peering_bit/top_side = 0
5:2/0/custom_data_0 = 1.1
6:2/0 = 0
6:2/0/terrain_set = 0
6:2/0/terrain = 2
6:2/0/physics_layer_0/linear_velocity = Vector2(0, 0)
6:2/0/physics_layer_0/angular_velocity = 0.0
6:2/0/terrains_peering_bit/right_side = 0
6:2/0/terrains_peering_bit/bottom_side = 2
6:2/0/terrains_peering_bit/left_side = 0
6:2/0/terrains_peering_bit/top_side = 2
6:2/0/custom_data_0 = 1.1
7:2/0 = 0
7:2/0/terrain_set = 0
7:2/0/terrain = 2
7:2/0/physics_layer_0/linear_velocity = Vector2(0, 0)
7:2/0/physics_layer_0/angular_velocity = 0.0
7:2/0/terrains_peering_bit/right_side = 2
7:2/0/terrains_peering_bit/bottom_side = 0
7:2/0/terrains_peering_bit/left_side = 2
7:2/0/terrains_peering_bit/top_side = 0
7:2/0/custom_data_0 = 1.1
8:2/0 = 0
8:2/0/terrain_set = 0
8:2/0/terrain = 2
8:2/0/physics_layer_0/linear_velocity = Vector2(0, 0)
8:2/0/physics_layer_0/angular_velocity = 0.0
8:2/0/terrains_peering_bit/right_side = 2
8:2/0/terrains_peering_bit/bottom_side = 2
8:2/0/terrains_peering_bit/left_side = 2
8:2/0/terrains_peering_bit/top_side = 0
8:2/0/custom_data_0 = 1.1
9:2/0 = 0
9:2/0/terrain_set = 0
9:2/0/terrain = 2
9:2/0/physics_layer_0/linear_velocity = Vector2(0, 0)
9:2/0/physics_layer_0/angular_velocity = 0.0
9:2/0/terrains_peering_bit/right_side = 2
9:2/0/terrains_peering_bit/bottom_side = 0
9:2/0/terrains_peering_bit/left_side = 2
9:2/0/terrains_peering_bit/top_side = 2
9:2/0/custom_data_0 = 1.1
10:2/0 = 0
10:2/0/terrain_set = 0
10:2/0/terrain = 2
10:2/0/physics_layer_0/linear_velocity = Vector2(0, 0)
10:2/0/physics_layer_0/angular_velocity = 0.0
10:2/0/terrains_peering_bit/right_side = 2
10:2/0/terrains_peering_bit/bottom_side = 2
10:2/0/terrains_peering_bit/left_side = 0
10:2/0/terrains_peering_bit/top_side = 2
10:2/0/custom_data_0 = 1.1
11:2/0 = 0
11:2/0/terrain_set = 0
11:2/0/terrain = 2
11:2/0/physics_layer_0/linear_velocity = Vector2(0, 0)
11:2/0/physics_layer_0/angular_velocity = 0.0
11:2/0/terrains_peering_bit/right_side = 0
11:2/0/terrains_peering_bit/bottom_side = 2
11:2/0/terrains_peering_bit/left_side = 2
11:2/0/terrains_peering_bit/top_side = 2
11:2/0/custom_data_0 = 1.1
12:2/0 = 0
12:2/0/terrain_set = 0
12:2/0/terrain = 2
12:2/0/physics_layer_0/linear_velocity = Vector2(0, 0)
12:2/0/physics_layer_0/angular_velocity = 0.0
12:2/0/terrains_peering_bit/right_side = 2
12:2/0/terrains_peering_bit/bottom_side = 2
12:2/0/terrains_peering_bit/left_side = 0
12:2/0/terrains_peering_bit/top_side = 0
12:2/0/custom_data_0 = 1.1
13:2/0 = 0
13:2/0/terrain_set = 0
13:2/0/terrain = 2
13:2/0/physics_layer_0/linear_velocity = Vector2(0, 0)
13:2/0/physics_layer_0/angular_velocity = 0.0
13:2/0/terrains_peering_bit/right_side = 0
13:2/0/terrains_peering_bit/bottom_side = 2
13:2/0/terrains_peering_bit/left_side = 2
13:2/0/terrains_peering_bit/top_side = 0
13:2/0/custom_data_0 = 1.1
14:2/0 = 0
14:2/0/terrain_set = 0
14:2/0/terrain = 2
14:2/0/physics_layer_0/linear_velocity = Vector2(0, 0)
14:2/0/physics_layer_0/angular_velocity = 0.0
14:2/0/terrains_peering_bit/right_side = 2
14:2/0/terrains_peering_bit/bottom_side = 0
14:2/0/terrains_peering_bit/left_side = 0
14:2/0/terrains_peering_bit/top_side = 2
14:2/0/custom_data_0 = 1.1
15:2/0 = 0
15:2/0/terrain_set = 0
15:2/0/terrain = 2
15:2/0/physics_layer_0/linear_velocity = Vector2(0, 0)
15:2/0/physics_layer_0/angular_velocity = 0.0
15:2/0/terrains_peering_bit/right_side = 0
15:2/0/terrains_peering_bit/bottom_side = 0
15:2/0/terrains_peering_bit/left_side = 2
15:2/0/terrains_peering_bit/top_side = 2
15:2/0/custom_data_0 = 1.1
0:3/0 = 0
0:3/0/terrain_set = 0
0:3/0/terrain = 3
0:3/0/physics_layer_0/linear_velocity = Vector2(0, 0)
0:3/0/physics_layer_0/angular_velocity = 0.0
0:3/0/terrains_peering_bit/right_side = 0
0:3/0/terrains_peering_bit/bottom_side = 0
0:3/0/terrains_peering_bit/left_side = 0
0:3/0/terrains_peering_bit/top_side = 0
0:3/0/custom_data_0 = 0.9
1:3/0 = 0
1:3/0/terrain_set = 0
1:3/0/terrain = 3
1:3/0/physics_layer_0/linear_velocity = Vector2(0, 0)
1:3/0/physics_layer_0/angular_velocity = 0.0
1:3/0/terrains_peering_bit/right_side = 3
1:3/0/terrains_peering_bit/bottom_side = 3
1:3/0/terrains_peering_bit/left_side = 3
1:3/0/terrains_peering_bit/top_side = 3
1:3/0/custom_data_0 = 0.9
2:3/0 = 0
2:3/0/terrain_set = 0
2:3/0/terrain = 3
2:3/0/physics_layer_0/linear_velocity = Vector2(0, 0)
2:3/0/physics_layer_0/angular_velocity = 0.0
2:3/0/terrains_peering_bit/right_side = 0
2:3/0/terrains_peering_bit/bottom_side = 3
2:3/0/terrains_peering_bit/left_side = 0
2:3/0/terrains_peering_bit/top_side = 0
2:3/0/custom_data_0 = 0.9
3:3/0 = 0
3:3/0/terrain_set = 0
3:3/0/terrain = 3
3:3/0/physics_layer_0/linear_velocity = Vector2(0, 0)
3:3/0/physics_layer_0/angular_velocity = 0.0
3:3/0/terrains_peering_bit/right_side = 0
3:3/0/terrains_peering_bit/bottom_side = 0
3:3/0/terrains_peering_bit/left_side = 0
3:3/0/terrains_peering_bit/top_side = 3
3:3/0/custom_data_0 = 0.9
4:3/0 = 0
4:3/0/terrain_set = 0
4:3/0/terrain = 3
4:3/0/physics_layer_0/linear_velocity = Vector2(0, 0)
4:3/0/physics_layer_0/angular_velocity = 0.0
4:3/0/terrains_peering_bit/right_side = 3
4:3/0/terrains_peering_bit/bottom_side = 0
4:3/0/terrains_peering_bit/left_side = 0
4:3/0/terrains_peering_bit/top_side = 0
4:3/0/custom_data_0 = 0.9
5:3/0 = 0
5:3/0/terrain_set = 0
5:3/0/terrain = 3
5:3/0/physics_layer_0/linear_velocity = Vector2(0, 0)
5:3/0/physics_layer_0/angular_velocity = 0.0
5:3/0/terrains_peering_bit/right_side = 0
5:3/0/terrains_peering_bit/bottom_side = 0
5:3/0/terrains_peering_bit/left_side = 3
5:3/0/terrains_peering_bit/top_side = 0
5:3/0/custom_data_0 = 0.9
6:3/0 = 0
6:3/0/terrain_set = 0
6:3/0/terrain = 3
6:3/0/physics_layer_0/linear_velocity = Vector2(0, 0)
6:3/0/physics_layer_0/angular_velocity = 0.0
6:3/0/terrains_peering_bit/right_side = 0
6:3/0/terrains_peering_bit/bottom_side = 3
6:3/0/terrains_peering_bit/left_side = 0
6:3/0/terrains_peering_bit/top_side = 3
6:3/0/custom_data_0 = 0.9
7:3/0 = 0
7:3/0/terrain_set = 0
7:3/0/terrain = 3
7:3/0/physics_layer_0/linear_velocity = Vector2(0, 0)
7:3/0/physics_layer_0/angular_velocity = 0.0
7:3/0/terrains_peering_bit/right_side = 3
7:3/0/terrains_peering_bit/bottom_side = 0
7:3/0/terrains_peering_bit/left_side = 3
7:3/0/terrains_peering_bit/top_side = 0
7:3/0/custom_data_0 = 0.9
8:3/0 = 0
8:3/0/terrain_set = 0
8:3/0/terrain = 3
8:3/0/physics_layer_0/linear_velocity = Vector2(0, 0)
8:3/0/physics_layer_0/angular_velocity = 0.0
8:3/0/terrains_peering_bit/right_side = 3
8:3/0/terrains_peering_bit/bottom_side = 3
8:3/0/terrains_peering_bit/left_side = 3
8:3/0/terrains_peering_bit/top_side = 0
8:3/0/custom_data_0 = 0.9
9:3/0 = 0
9:3/0/terrain_set = 0
9:3/0/terrain = 3
9:3/0/physics_layer_0/linear_velocity = Vector2(0, 0)
9:3/0/physics_layer_0/angular_velocity = 0.0
9:3/0/terrains_peering_bit/right_side = 3
9:3/0/terrains_peering_bit/bottom_side = 0
9:3/0/terrains_peering_bit/left_side = 3
9:3/0/terrains_peering_bit/top_side = 3
9:3/0/custom_data_0 = 0.9
10:3/0 = 0
10:3/0/terrain_set = 0
10:3/0/terrain = 3
10:3/0/physics_layer_0/linear_velocity = Vector2(0, 0)
10:3/0/physics_layer_0/angular_velocity = 0.0
10:3/0/terrains_peering_bit/right_side = 3
10:3/0/terrains_peering_bit/bottom_side = 3
10:3/0/terrains_peering_bit/left_side = 0
10:3/0/terrains_peering_bit/top_side = 3
10:3/0/custom_data_0 = 0.9
11:3/0 = 0
11:3/0/terrain_set = 0
11:3/0/terrain = 3
11:3/0/physics_layer_0/linear_velocity = Vector2(0, 0)
11:3/0/physics_layer_0/angular_velocity = 0.0
11:3/0/terrains_peering_bit/right_side = 0
11:3/0/terrains_peering_bit/bottom_side = 3
11:3/0/terrains_peering_bit/left_side = 3
11:3/0/terrains_peering_bit/top_side = 3
11:3/0/custom_data_0 = 0.9
12:3/0 = 0
12:3/0/terrain_set = 0
12:3/0/terrain = 3
12:3/0/physics_layer_0/linear_velocity = Vector2(0, 0)
12:3/0/physics_layer_0/angular_velocity = 0.0
12:3/0/terrains_peering_bit/right_side = 3
12:3/0/terrains_peering_bit/bottom_side = 3
12:3/0/terrains_peering_bit/left_side = 0
12:3/0/terrains_peering_bit/top_side = 0
12:3/0/custom_data_0 = 0.9
13:3/0 = 0
13:3/0/terrain_set = 0
13:3/0/terrain = 3
13:3/0/physics_layer_0/linear_velocity = Vector2(0, 0)
13:3/0/physics_layer_0/angular_velocity = 0.0
13:3/0/terrains_peering_bit/right_side = 0
13:3/0/terrains_peering_bit/bottom_side = 3
13:3/0/terrains_peering_bit/left_side = 3
13:3/0/terrains_peering_bit/top_side = 0
13:3/0/custom_data_0 = 0.9
14:3/0 = 0
14:3/0/terrain_set = 0
14:3/0/terrain = 3
14:3/0/physics_layer_0/linear_velocity = Vector2(0, 0)
14:3/0/physics_layer_0/angular_velocity = 0.0
14:3/0/terrains_peering_bit/right_side = 3
14:3/0/terrains_peering_bit/bottom_side = 0
14:3/0/terrains_peering_bit/left_side = 0
14:3/0/terrains_peering_bit/top_side = 3
14:3/0/custom_data_0 = 0.9
15:3/0 = 0
15:3/0/terrain_set = 0
15:3/0/terrain = 3
15:3/0/physics_layer_0/linear_velocity = Vector2(0, 0)
15:3/0/physics_layer_0/angular_velocity = 0.0
15:3/0/terrains_peering_bit/right_side = 0
15:3/0/terrains_peering_bit/bottom_side = 0
15:3/0/terrains_peering_bit/left_side = 3
15:3/0/terrains_peering_bit/top_side = 3
15:3/0/custom_data_0 = 0.9
0:4/0 = 0
0:4/0/terrain_set = 0
0:4/0/terrain = 4
0:4/0/physics_layer_0/linear_velocity = Vector2(0, 0)
0:4/0/physics_layer_0/angular_velocity = 0.0
0:4/0/terrains_peering_bit/right_side = 0
0:4/0/terrains_peering_bit/bottom_side = 0
0:4/0/terrains_peering_bit/left_side = 0
0:4/0/terrains_peering_bit/top_side = 0
0:4/0/custom_data_0 = 0.7
1:4/0 = 0
1:4/0/terrain_set = 0
1:4/0/terrain = 4
1:4/0/physics_layer_0/linear_velocity = Vector2(0, 0)
1:4/0/physics_layer_0/angular_velocity = 0.0
1:4/0/terrains_peering_bit/right_side = 4
1:4/0/terrains_peering_bit/bottom_side = 4
1:4/0/terrains_peering_bit/left_side = 4
1:4/0/terrains_peering_bit/top_side = 4
1:4/0/custom_data_0 = 0.7
2:4/0 = 0
2:4/0/terrain_set = 0
2:4/0/terrain = 4
2:4/0/physics_layer_0/linear_velocity = Vector2(0, 0)
2:4/0/physics_layer_0/angular_velocity = 0.0
2:4/0/terrains_peering_bit/right_side = 0
2:4/0/terrains_peering_bit/bottom_side = 4
2:4/0/terrains_peering_bit/left_side = 0
2:4/0/terrains_peering_bit/top_side = 0
2:4/0/custom_data_0 = 0.7
3:4/0 = 0
3:4/0/terrain_set = 0
3:4/0/terrain = 4
3:4/0/physics_layer_0/linear_velocity = Vector2(0, 0)
3:4/0/physics_layer_0/angular_velocity = 0.0
3:4/0/terrains_peering_bit/right_side = 0
3:4/0/terrains_peering_bit/bottom_side = 0
3:4/0/terrains_peering_bit/left_side = 0
3:4/0/terrains_peering_bit/top_side = 4
3:4/0/custom_data_0 = 0.7
4:4/0 = 0
4:4/0/terrain_set = 0
4:4/0/terrain = 4
4:4/0/physics_layer_0/linear_velocity = Vector2(0, 0)
4:4/0/physics_layer_0/angular_velocity = 0.0
4:4/0/terrains_peering_bit/right_side = 4
4:4/0/terrains_peering_bit/bottom_side = 0
4:4/0/terrains_peering_bit/left_side = 0
4:4/0/terrains_peering_bit/top_side = 0
4:4/0/custom_data_0 = 0.7
5:4/0 = 0
5:4/0/terrain_set = 0
5:4/0/terrain = 4
5:4/0/physics_layer_0/linear_velocity = Vector2(0, 0)
5:4/0/physics_layer_0/angular_velocity = 0.0
5:4/0/terrains_peering_bit/right_side = 0
5:4/0/terrains_peering_bit/bottom_side = 0
5:4/0/terrains_peering_bit/left_side = 4
5:4/0/terrains_peering_bit/top_side = 0
5:4/0/custom_data_0 = 0.7
6:4/0 = 0
6:4/0/terrain_set = 0
6:4/0/terrain = 4
6:4/0/physics_layer_0/linear_velocity = Vector2(0, 0)
6:4/0/physics_layer_0/angular_velocity = 0.0
6:4/0/terrains_peering_bit/right_side = 0
6:4/0/terrains_peering_bit/bottom_side = 4
6:4/0/terrains_peering_bit/left_side = 0
6:4/0/terrains_peering_bit/top_side = 4
6:4/0/custom_data_0 = 0.7
7:4/0 = 0
7:4/0/terrain_set = 0
7:4/0/terrain = 4
7:4/0/physics_layer_0/linear_velocity = Vector2(0, 0)
7:4/0/physics_layer_0/angular_velocity = 0.0
7:4/0/terrains_peering_bit/right_side = 4
7:4/0/terrains_peering_bit/bottom_side = 0
7:4/0/terrains_peering_bit/left_side = 4
7:4/0/terrains_peering_bit/top_side = 0
7:4/0/custom_data_0 = 0.7
8:4/0 = 0
8:4/0/terrain_set = 0
8:4/0/terrain = 4
8:4/0/physics_layer_0/linear_velocity = Vector2(0, 0)
8:4/0/physics_layer_0/angular_velocity = 0.0
8:4/0/terrains_peering_bit/right_side = 4
8:4/0/terrains_peering_bit/bottom_side = 4
8:4/0/terrains_peering_bit/left_side = 4
8:4/0/terrains_peering_bit/top_side = 0
8:4/0/custom_data_0 = 0.7
9:4/0 = 0
9:4/0/terrain_set = 0
9:4/0/terrain = 4
9:4/0/physics_layer_0/linear_velocity = Vector2(0, 0)
9:4/0/physics_layer_0/angular_velocity = 0.0
9:4/0/terrains_peering_bit/right_side = 4
9:4/0/terrains_peering_bit/bottom_side = 0
9:4/0/terrains_peering_bit/left_side = 4
9:4/0/terrains_peering_bit/top_side = 4
9:4/0/custom_data_0 = 0.7
10:4/0 = 0
10:4/0/terrain_set = 0
10:4/0/terrain = 4
10:4/0/physics_layer_0/linear_velocity = Vector2(0, 0)
10:4/0/physics_layer_0/angular_velocity = 0.0
10:4/0/terrains_peering_bit/right_side = 4
10:4/0/terrains_peering_bit/bottom_side = 4
10:4/0/terrains_peering_bit/left_side = 0
10:4/0/terrains_peering_bit/top_side = 4
10:4/0/custom_data_0 = 0.7
11:4/0 = 0
11:4/0/terrain_set = 0
11:4/0/terrain = 4
11:4/0/physics_layer_0/linear_velocity = Vector2(0, 0)
11:4/0/physics_layer_0/angular_velocity = 0.0
11:4/0/terrains_peering_bit/right_side = 0
11:4/0/terrains_peering_bit/bottom_side = 4
11:4/0/terrains_peering_bit/left_side = 4
11:4/0/terrains_peering_bit/top_side = 4
11:4/0/custom_data_0 = 0.7
12:4/0 = 0
12:4/0/terrain_set = 0
12:4/0/terrain = 4
12:4/0/physics_layer_0/linear_velocity = Vector2(0, 0)
12:4/0/physics_layer_0/angular_velocity = 0.0
12:4/0/terrains_peering_bit/right_side = 4
12:4/0/terrains_peering_bit/bottom_side = 4
12:4/0/terrains_peering_bit/left_side = 0
12:4/0/terrains_peering_bit/top_side = 0
12:4/0/custom_data_0 = 0.7
13:4/0 = 0
13:4/0/terrain_set = 0
13:4/0/terrain = 4
13:4/0/physics_layer_0/linear_velocity = Vector2(0, 0)
13:4/0/physics_layer_0/angular_velocity = 0.0
13:4/0/terrains_peering_bit/right_side = 0
13:4/0/terrains_peering_bit/bottom_side = 4
13:4/0/terrains_peering_bit/left_side = 4
13:4/0/terrains_peering_bit/top_side = 0
13:4/0/custom_data_0 = 0.7
14:4/0 = 0
14:4/0/terrain_set = 0
14:4/0/terrain = 4
14:4/0/physics_layer_0/linear_velocity = Vector2(0, 0)
14:4/0/physics_layer_0/angular_velocity = 0.0
14:4/0/terrains_peering_bit/right_side = 4
14:4/0/terrains_peering_bit/bottom_side = 0
14:4/0/terrains_peering_bit/left_side = 0
14:4/0/terrains_peering_bit/top_side = 4
14:4/0/custom_data_0 = 0.7
15:4/0 = 0
15:4/0/terrain_set = 0
15:4/0/terrain = 4
15:4/0/physics_layer_0/linear_velocity = Vector2(0, 0)
15:4/0/physics_layer_0/angular_velocity = 0.0
15:4/0/terrains_peering_bit/right_side = 0
15:4/0/terrains_peering_bit/bottom_side = 0
15:4/0/terrains_peering_bit/left_side = 4
15:4/0/terrains_peering_bit/top_side = 4
15:4/0/custom_data_0 = 0.7
0:5/0 = 0
0:5/0/terrain_set = 0
0:5/0/terrain = 6
0:5/0/physics_layer_0/linear_velocity = Vector2(0, 0)
0:5/0/physics_layer_0/angular_velocity = 0.0
0:5/0/terrains_peering_bit/right_side = 0
0:5/0/terrains_peering_bit/bottom_side = 0
0:5/0/terrains_peering_bit/left_side = 0
0:5/0/terrains_peering_bit/top_side = 0
0:5/0/custom_data_0 = 1.5
1:5/0 = 0
1:5/0/terrain_set = 0
1:5/0/terrain = 6
1:5/0/physics_layer_0/linear_velocity = Vector2(0, 0)
1:5/0/physics_layer_0/angular_velocity = 0.0
1:5/0/terrains_peering_bit/right_side = 6
1:5/0/terrains_peering_bit/bottom_side = 6
1:5/0/terrains_peering_bit/left_side = 6
1:5/0/terrains_peering_bit/top_side = 6
1:5/0/custom_data_0 = 1.5
2:5/0 = 0
2:5/0/terrain_set = 0
2:5/0/terrain = 6
2:5/0/physics_layer_0/linear_velocity = Vector2(0, 0)
2:5/0/physics_layer_0/angular_velocity = 0.0
2:5/0/terrains_peering_bit/right_side = 0
2:5/0/terrains_peering_bit/bottom_side = 6
2:5/0/terrains_peering_bit/left_side = 0
2:5/0/terrains_peering_bit/top_side = 0
2:5/0/custom_data_0 = 1.5
3:5/0 = 0
3:5/0/terrain_set = 0
3:5/0/terrain = 6
3:5/0/physics_layer_0/linear_velocity = Vector2(0, 0)
3:5/0/physics_layer_0/angular_velocity = 0.0
3:5/0/terrains_peering_bit/right_side = 0
3:5/0/terrains_peering_bit/bottom_side = 0
3:5/0/terrains_peering_bit/left_side = 0
3:5/0/terrains_peering_bit/top_side = 6
3:5/0/custom_data_0 = 1.5
4:5/0 = 0
4:5/0/terrain_set = 0
4:5/0/terrain = 6
4:5/0/physics_layer_0/linear_velocity = Vector2(0, 0)
4:5/0/physics_layer_0/angular_velocity = 0.0
4:5/0/terrains_peering_bit/right_side = 6
4:5/0/terrains_peering_bit/bottom_side = 0
4:5/0/terrains_peering_bit/left_side = 0
4:5/0/terrains_peering_bit/top_side = 0
4:5/0/custom_data_0 = 1.5
5:5/0 = 0
5:5/0/terrain_set = 0
5:5/0/terrain = 6
5:5/0/physics_layer_0/linear_velocity = Vector2(0, 0)
5:5/0/physics_layer_0/angular_velocity = 0.0
5:5/0/terrains_peering_bit/right_side = 0
5:5/0/terrains_peering_bit/bottom_side = 0
5:5/0/terrains_peering_bit/left_side = 6
5:5/0/terrains_peering_bit/top_side = 0
5:5/0/custom_data_0 = 1.5
6:5/0 = 0
6:5/0/terrain_set = 0
6:5/0/terrain = 6
6:5/0/physics_layer_0/linear_velocity = Vector2(0, 0)
6:5/0/physics_layer_0/angular_velocity = 0.0
6:5/0/terrains_peering_bit/right_side = 0
6:5/0/terrains_peering_bit/bottom_side = 6
6:5/0/terrains_peering_bit/left_side = 0
6:5/0/terrains_peering_bit/top_side = 6
6:5/0/custom_data_0 = 1.5
7:5/0 = 0
7:5/0/terrain_set = 0
7:5/0/terrain = 6
7:5/0/physics_layer_0/linear_velocity = Vector2(0, 0)
7:5/0/physics_layer_0/angular_velocity = 0.0
7:5/0/terrains_peering_bit/right_side = 6
7:5/0/terrains_peering_bit/bottom_side = 0
7:5/0/terrains_peering_bit/left_side = 6
7:5/0/terrains_peering_bit/top_side = 0
7:5/0/custom_data_0 = 1.5
8:5/0 = 0
8:5/0/terrain_set = 0
8:5/0/terrain = 6
8:5/0/physics_layer_0/linear_velocity = Vector2(0, 0)
8:5/0/physics_layer_0/angular_velocity = 0.0
8:5/0/terrains_peering_bit/right_side = 6
8:5/0/terrains_peering_bit/bottom_side = 6
8:5/0/terrains_peering_bit/left_side = 6
8:5/0/terrains_peering_bit/top_side = 0
8:5/0/custom_data_0 = 1.5
9:5/0 = 0
9:5/0/terrain_set = 0
9:5/0/terrain = 6
9:5/0/physics_layer_0/linear_velocity = Vector2(0, 0)
9:5/0/physics_layer_0/angular_velocity = 0.0
9:5/0/terrains_peering_bit/right_side = 6
9:5/0/terrains_peering_bit/bottom_side = 0
9:5/0/terrains_peering_bit/left_side = 6
9:5/0/terrains_peering_bit/top_side = 6
9:5/0/custom_data_0 = 1.5
10:5/0 = 0
10:5/0/terrain_set = 0
10:5/0/terrain = 6
10:5/0/physics_layer_0/linear_velocity = Vector2(0, 0)
10:5/0/physics_layer_0/angular_velocity = 0.0
10:5/0/terrains_peering_bit/right_side = 6
10:5/0/terrains_peering_bit/bottom_side = 6
10:5/0/terrains_peering_bit/left_side = 0
10:5/0/terrains_peering_bit/top_side = 6
10:5/0/custom_data_0 = 1.5
11:5/0 = 0
11:5/0/terrain_set = 0
11:5/0/terrain = 6
11:5/0/physics_layer_0/linear_velocity = Vector2(0, 0)
11:5/0/physics_layer_0/angular_velocity = 0.0
11:5/0/terrains_peering_bit/right_side = 0
11:5/0/terrains_peering_bit/bottom_side = 6
11:5/0/terrains_peering_bit/left_side = 6
11:5/0/terrains_peering_bit/top_side = 6
11:5/0/custom_data_0 = 1.5
12:5/0 = 0
12:5/0/terrain_set = 0
12:5/0/terrain = 6
12:5/0/physics_layer_0/linear_velocity = Vector2(0, 0)
12:5/0/physics_layer_0/angular_velocity = 0.0
12:5/0/terrains_peering_bit/right_side = 6
12:5/0/terrains_peering_bit/bottom_side = 6
12:5/0/terrains_peering_bit/left_side = 0
12:5/0/terrains_peering_bit/top_side = 0
12:5/0/custom_data_0 = 1.5
13:5/0 = 0
13:5/0/terrain_set = 0
13:5/0/terrain = 6
13:5/0/physics_layer_0/linear_velocity = Vector2(0, 0)
13:5/0/physics_layer_0/angular_velocity = 0.0
13:5/0/terrains_peering_bit/right_side = 0
13:5/0/terrains_peering_bit/bottom_side = 6
13:5/0/terrains_peering_bit/left_side = 6
13:5/0/terrains_peering_bit/top_side = 0
13:5/0/custom_data_0 = 1.5
14:5/0 = 0
14:5/0/terrain_set = 0
14:5/0/terrain = 6
14:5/0/physics_layer_0/linear_velocity = Vector2(0, 0)
14:5/0/physics_layer_0/angular_velocity = 0.0
14:5/0/terrains_peering_bit/right_side = 6
14:5/0/terrains_peering_bit/bottom_side = 0
14:5/0/terrains_peering_bit/left_side = 0
14:5/0/terrains_peering_bit/top_side = 6
14:5/0/custom_data_0 = 1.5
15:5/0 = 0
15:5/0/terrain_set = 0
15:5/0/terrain = 6
15:5/0/physics_layer_0/linear_velocity = Vector2(0, 0)
15:5/0/physics_layer_0/angular_velocity = 0.0
15:5/0/terrains_peering_bit/right_side = 0
15:5/0/terrains_peering_bit/bottom_side = 0
15:5/0/terrains_peering_bit/left_side = 6
15:5/0/terrains_peering_bit/top_side = 6
15:5/0/custom_data_0 = 1.5
0:6/0 = 0
0:6/0/physics_layer_0/linear_velocity = Vector2(0, 0)
0:6/0/physics_layer_0/angular_velocity = 0.0
0:6/0/custom_data_0 = 1.0
1:6/0 = 0
1:6/0/physics_layer_0/linear_velocity = Vector2(0, 0)
1:6/0/physics_layer_0/angular_velocity = 0.0
1:6/0/custom_data_0 = 1.0
8:6/0 = 0
8:6/0/physics_layer_0/linear_velocity = Vector2(0, 0)
8:6/0/physics_layer_0/angular_velocity = 0.0
9:6/0 = 0
9:6/0/physics_layer_0/linear_velocity = Vector2(0, 0)
9:6/0/physics_layer_0/angular_velocity = 0.0
10:6/0 = 0
10:6/0/physics_layer_0/linear_velocity = Vector2(0, 0)
10:6/0/physics_layer_0/angular_velocity = 0.0
11:6/0 = 0
11:6/0/physics_layer_0/linear_velocity = Vector2(0, 0)
11:6/0/physics_layer_0/angular_velocity = 0.0
12:6/0 = 0
12:6/0/physics_layer_0/linear_velocity = Vector2(0, 0)
12:6/0/physics_layer_0/angular_velocity = 0.0
13:6/0 = 0
13:6/0/physics_layer_0/linear_velocity = Vector2(0, 0)
13:6/0/physics_layer_0/angular_velocity = 0.0
14:6/0 = 0
14:6/0/physics_layer_0/linear_velocity = Vector2(0, 0)
14:6/0/physics_layer_0/angular_velocity = 0.0
15:6/0 = 0
15:6/0/physics_layer_0/linear_velocity = Vector2(0, 0)
15:6/0/physics_layer_0/angular_velocity = 0.0
0:7/0 = 0
0:7/0/terrain_set = 1
0:7/0/terrain = 0
0:7/0/physics_layer_0/linear_velocity = Vector2(0, 0)
0:7/0/physics_layer_0/angular_velocity = 0.0
0:7/0/physics_layer_0/polygon_0/points = PackedVector2Array(-8, -8, 8, -8, 8, 8, -8, 8)
0:7/0/terrains_peering_bit/right_side = 0
0:7/0/terrains_peering_bit/bottom_side = 1
0:7/0/terrains_peering_bit/left_side = 0
0:7/0/terrains_peering_bit/top_side = 0
0:8/0 = 0
0:8/0/terrain_set = 1
0:8/0/terrain = 1
0:8/0/physics_layer_0/linear_velocity = Vector2(0, 0)
0:8/0/physics_layer_0/angular_velocity = 0.0
0:8/0/physics_layer_0/polygon_0/points = PackedVector2Array(-8, -8, 8, -8, 8, 8, -8, 8)
0:8/0/terrains_peering_bit/right_side = 1
0:8/0/terrains_peering_bit/bottom_side = 1
0:8/0/terrains_peering_bit/left_side = 1
0:8/0/terrains_peering_bit/top_side = 1
0:9/0 = 0
0:9/0/terrain_set = 1
0:9/0/terrain = 2
0:9/0/physics_layer_0/linear_velocity = Vector2(0, 0)
0:9/0/physics_layer_0/angular_velocity = 0.0
0:9/0/physics_layer_0/polygon_0/points = PackedVector2Array(-8, -8, 8, -8, 8, 8, -8, 8)
0:9/0/terrains_peering_bit/right_side = 2
0:9/0/terrains_peering_bit/bottom_side = 2
0:9/0/terrains_peering_bit/left_side = 2
0:9/0/terrains_peering_bit/top_side = 1
0:10/0 = 0
0:10/0/terrain_set = 0
0:10/0/terrain = 5
0:10/0/physics_layer_0/linear_velocity = Vector2(0, 0)
0:10/0/physics_layer_0/angular_velocity = 0.0
0:10/0/terrains_peering_bit/right_side = 0
0:10/0/terrains_peering_bit/bottom_side = 0
0:10/0/terrains_peering_bit/left_side = 0
0:10/0/terrains_peering_bit/top_side = 0
0:10/0/custom_data_0 = 0.9
1:10/0 = 0
1:10/0/terrain_set = 0
1:10/0/terrain = 5
1:10/0/physics_layer_0/linear_velocity = Vector2(0, 0)
1:10/0/physics_layer_0/angular_velocity = 0.0
1:10/0/terrains_peering_bit/right_side = 5
1:10/0/terrains_peering_bit/bottom_side = 5
1:10/0/terrains_peering_bit/left_side = 5
1:10/0/terrains_peering_bit/top_side = 5
1:10/0/custom_data_0 = 0.9
2:10/0 = 0
2:10/0/terrain_set = 0
2:10/0/terrain = 5
2:10/0/physics_layer_0/linear_velocity = Vector2(0, 0)
2:10/0/physics_layer_0/angular_velocity = 0.0
2:10/0/terrains_peering_bit/right_side = 0
2:10/0/terrains_peering_bit/bottom_side = 5
2:10/0/terrains_peering_bit/left_side = 0
2:10/0/terrains_peering_bit/top_side = 0
2:10/0/custom_data_0 = 0.9
3:10/0 = 0
3:10/0/terrain_set = 0
3:10/0/terrain = 5
3:10/0/physics_layer_0/linear_velocity = Vector2(0, 0)
3:10/0/physics_layer_0/angular_velocity = 0.0
3:10/0/terrains_peering_bit/right_side = 0
3:10/0/terrains_peering_bit/bottom_side = 0
3:10/0/terrains_peering_bit/left_side = 0
3:10/0/terrains_peering_bit/top_side = 5
3:10/0/custom_data_0 = 0.9
4:10/0 = 0
4:10/0/terrain_set = 0
4:10/0/terrain = 5
4:10/0/physics_layer_0/linear_velocity = Vector2(0, 0)
4:10/0/physics_layer_0/angular_velocity = 0.0
4:10/0/terrains_peering_bit/right_side = 5
4:10/0/terrains_peering_bit/bottom_side = 0
4:10/0/terrains_peering_bit/left_side = 0
4:10/0/terrains_peering_bit/top_side = 0
4:10/0/custom_data_0 = 0.9
5:10/0 = 0
5:10/0/terrain_set = 0
5:10/0/terrain = 5
5:10/0/physics_layer_0/linear_velocity = Vector2(0, 0)
5:10/0/physics_layer_0/angular_velocity = 0.0
5:10/0/terrains_peering_bit/right_side = 0
5:10/0/terrains_peering_bit/bottom_side = 0
5:10/0/terrains_peering_bit/left_side = 5
5:10/0/terrains_peering_bit/top_side = 0
5:10/0/custom_data_0 = 0.9
6:10/0 = 0
6:10/0/terrain_set = 0
6:10/0/terrain = 5
6:10/0/physics_layer_0/linear_velocity = Vector2(0, 0)
6:10/0/physics_layer_0/angular_velocity = 0.0
6:10/0/terrains_peering_bit/right_side = 0
6:10/0/terrains_peering_bit/bottom_side = 5
6:10/0/terrains_peering_bit/left_side = 0
6:10/0/terrains_peering_bit/top_side = 5
6:10/0/custom_data_0 = 0.9
7:10/0 = 0
7:10/0/terrain_set = 0
7:10/0/terrain = 5
7:10/0/physics_layer_0/linear_velocity = Vector2(0, 0)
7:10/0/physics_layer_0/angular_velocity = 0.0
7:10/0/terrains_peering_bit/right_side = 5
7:10/0/terrains_peering_bit/bottom_side = 0
7:10/0/terrains_peering_bit/left_side = 5
7:10/0/terrains_peering_bit/top_side = 0
7:10/0/custom_data_0 = 0.9
8:10/0 = 0
8:10/0/terrain_set = 0
8:10/0/terrain = 5
8:10/0/physics_layer_0/linear_velocity = Vector2(0, 0)
8:10/0/physics_layer_0/angular_velocity = 0.0
8:10/0/terrains_peering_bit/right_side = 5
8:10/0/terrains_peering_bit/bottom_side = 5
8:10/0/terrains_peering_bit/left_side = 5
8:10/0/terrains_peering_bit/top_side = 0
8:10/0/custom_data_0 = 0.9
9:10/0 = 0
9:10/0/terrain_set = 0
9:10/0/terrain = 5
9:10/0/physics_layer_0/linear_velocity = Vector2(0, 0)
9:10/0/physics_layer_0/angular_velocity = 0.0
9:10/0/terrains_peering_bit/right_side = 5
9:10/0/terrains_peering_bit/bottom_side = 0
9:10/0/terrains_peering_bit/left_side = 5
9:10/0/terrains_peering_bit/top_side = 5
9:10/0/custom_data_0 = 0.9
10:10/0 = 0
10:10/0/terrain_set = 0
10:10/0/terrain = 5
10:10/0/physics_layer_0/linear_velocity = Vector2(0, 0)
10:10/0/physics_layer_0/angular_velocity = 0.0
10:10/0/terrains_peering_bit/right_side = 5
10:10/0/terrains_peering_bit/bottom_side = 5
10:10/0/terrains_peering_bit/left_side = 0
10:10/0/terrains_peering_bit/top_side = 5
10:10/0/custom_data_0 = 0.9
11:10/0 = 0
11:10/0/terrain_set = 0
11:10/0/terrain = 5
11:10/0/physics_layer_0/linear_velocity = Vector2(0, 0)
11:10/0/physics_layer_0/angular_velocity = 0.0
11:10/0/terrains_peering_bit/right_side = 0
11:10/0/terrains_peering_bit/bottom_side = 5
11:10/0/terrains_peering_bit/left_side = 5
11:10/0/terrains_peering_bit/top_side = 5
11:10/0/custom_data_0 = 0.9
12:10/0 = 0
12:10/0/terrain_set = 0
12:10/0/terrain = 5
12:10/0/physics_layer_0/linear_velocity = Vector2(0, 0)
12:10/0/physics_layer_0/angular_velocity = 0.0
12:10/0/terrains_peering_bit/right_side = 5
12:10/0/terrains_peering_bit/bottom_side = 5
12:10/0/terrains_peering_bit/left_side = 0
12:10/0/terrains_peering_bit/top_side = 0
12:10/0/custom_data_0 = 0.9
13:10/0 = 0
13:10/0/terrain_set = 0
13:10/0/terrain = 5
13:10/0/physics_layer_0/linear_velocity = Vector2(0, 0)
13:10/0/physics_layer_0/angular_velocity = 0.0
13:10/0/terrains_peering_bit/right_side = 0
13:10/0/terrains_peering_bit/bottom_side = 5
13:10/0/terrains_peering_bit/left_side = 5
13:10/0/terrains_peering_bit/top_side = 0
13:10/0/custom_data_0 = 0.9
14:10/0 = 0
14:10/0/terrain_set = 0
14:10/0/terrain = 5
14:10/0/physics_layer_0/linear_velocity = Vector2(0, 0)
14:10/0/physics_layer_0/angular_velocity = 0.0
14:10/0/terrains_peering_bit/right_side = 5
14:10/0/terrains_peering_bit/bottom_side = 0
14:10/0/terrains_peering_bit/left_side = 0
14:10/0/terrains_peering_bit/top_side = 5
14:10/0/custom_data_0 = 0.9
15:10/0 = 0
15:10/0/terrain_set = 0
15:10/0/terrain = 5
15:10/0/physics_layer_0/linear_velocity = Vector2(0, 0)
15:10/0/physics_layer_0/angular_velocity = 0.0
15:10/0/terrains_peering_bit/right_side = 0
15:10/0/terrains_peering_bit/bottom_side = 0
15:10/0/terrains_peering_bit/left_side = 5
15:10/0/terrains_peering_bit/top_side = 5
15:10/0/custom_data_0 = 0.9
0:11/animation_columns = 1
0:11/animation_separation = Vector2i(1, 0)
0:11/animation_speed = 0.25
0:11/animation_frame_0/duration = 1.0
0:11/animation_frame_1/duration = 1.0
0:11/animation_frame_2/duration = 1.0
0:11/0 = 0
0:11/0/terrain_set = 0
0:11/0/terrain = 7
0:11/0/physics_layer_0/linear_velocity = Vector2(0, 0)
0:11/0/physics_layer_0/angular_velocity = 0.0
0:11/0/terrains_peering_bit/right_side = 0
0:11/0/terrains_peering_bit/bottom_side = 0
0:11/0/terrains_peering_bit/left_side = 0
0:11/0/terrains_peering_bit/top_side = 0
0:11/0/custom_data_0 = 0.5
0:11/0/custom_data_1 = 0.75
1:11/animation_columns = 1
1:11/animation_separation = Vector2i(1, 0)
1:11/animation_speed = 0.25
1:11/animation_frame_0/duration = 1.0
1:11/animation_frame_1/duration = 1.0
1:11/animation_frame_2/duration = 1.0
1:11/0 = 0
1:11/0/terrain_set = 0
1:11/0/terrain = 7
1:11/0/physics_layer_0/linear_velocity = Vector2(0, 0)
1:11/0/physics_layer_0/angular_velocity = 0.0
1:11/0/terrains_peering_bit/right_side = 7
1:11/0/terrains_peering_bit/bottom_side = 7
1:11/0/terrains_peering_bit/left_side = 7
1:11/0/terrains_peering_bit/top_side = 7
1:11/0/custom_data_0 = 0.5
1:11/0/custom_data_1 = 0.75
2:11/animation_columns = 1
2:11/animation_separation = Vector2i(1, 0)
2:11/animation_speed = 0.25
2:11/animation_frame_0/duration = 1.0
2:11/animation_frame_1/duration = 1.0
2:11/animation_frame_2/duration = 1.0
2:11/0 = 0
2:11/0/terrain_set = 0
2:11/0/terrain = 7
2:11/0/physics_layer_0/linear_velocity = Vector2(0, 0)
2:11/0/physics_layer_0/angular_velocity = 0.0
2:11/0/terrains_peering_bit/right_side = 0
2:11/0/terrains_peering_bit/bottom_side = 7
2:11/0/terrains_peering_bit/left_side = 0
2:11/0/terrains_peering_bit/top_side = 0
2:11/0/custom_data_0 = 0.5
2:11/0/custom_data_1 = 0.75
3:11/animation_columns = 1
3:11/animation_separation = Vector2i(1, 0)
3:11/animation_speed = 0.25
3:11/animation_frame_0/duration = 1.0
3:11/animation_frame_1/duration = 1.0
3:11/animation_frame_2/duration = 1.0
3:11/0 = 0
3:11/0/terrain_set = 0
3:11/0/terrain = 7
3:11/0/physics_layer_0/linear_velocity = Vector2(0, 0)
3:11/0/physics_layer_0/angular_velocity = 0.0
3:11/0/terrains_peering_bit/right_side = 0
3:11/0/terrains_peering_bit/bottom_side = 0
3:11/0/terrains_peering_bit/left_side = 0
3:11/0/terrains_peering_bit/top_side = 7
3:11/0/custom_data_0 = 0.5
3:11/0/custom_data_1 = 0.75
4:11/animation_columns = 1
4:11/animation_separation = Vector2i(1, 0)
4:11/animation_speed = 0.25
4:11/animation_frame_0/duration = 1.0
4:11/animation_frame_1/duration = 1.0
4:11/animation_frame_2/duration = 1.0
4:11/0 = 0
4:11/0/terrain_set = 0
4:11/0/terrain = 7
4:11/0/physics_layer_0/linear_velocity = Vector2(0, 0)
4:11/0/physics_layer_0/angular_velocity = 0.0
4:11/0/terrains_peering_bit/right_side = 7
4:11/0/terrains_peering_bit/bottom_side = 0
4:11/0/terrains_peering_bit/left_side = 0
4:11/0/terrains_peering_bit/top_side = 0
4:11/0/custom_data_0 = 0.5
4:11/0/custom_data_1 = 0.75
5:11/animation_columns = 1
5:11/animation_separation = Vector2i(1, 0)
5:11/animation_speed = 0.25
5:11/animation_frame_0/duration = 1.0
5:11/animation_frame_1/duration = 1.0
5:11/animation_frame_2/duration = 1.0
5:11/0 = 0
5:11/0/terrain_set = 0
5:11/0/terrain = 7
5:11/0/physics_layer_0/linear_velocity = Vector2(0, 0)
5:11/0/physics_layer_0/angular_velocity = 0.0
5:11/0/terrains_peering_bit/right_side = 0
5:11/0/terrains_peering_bit/bottom_side = 0
5:11/0/terrains_peering_bit/left_side = 7
5:11/0/terrains_peering_bit/top_side = 0
5:11/0/custom_data_0 = 0.5
5:11/0/custom_data_1 = 0.75
6:11/animation_columns = 1
6:11/animation_separation = Vector2i(1, 0)
6:11/animation_speed = 0.25
6:11/animation_frame_0/duration = 1.0
6:11/animation_frame_1/duration = 1.0
6:11/animation_frame_2/duration = 1.0
6:11/0 = 0
6:11/0/terrain_set = 0
6:11/0/terrain = 7
6:11/0/physics_layer_0/linear_velocity = Vector2(0, 0)
6:11/0/physics_layer_0/angular_velocity = 0.0
6:11/0/terrains_peering_bit/right_side = 0
6:11/0/terrains_peering_bit/bottom_side = 7
6:11/0/terrains_peering_bit/left_side = 0
6:11/0/terrains_peering_bit/top_side = 7
6:11/0/custom_data_0 = 0.5
6:11/0/custom_data_1 = 0.75
7:11/animation_columns = 1
7:11/animation_separation = Vector2i(1, 0)
7:11/animation_speed = 0.25
7:11/animation_frame_0/duration = 1.0
7:11/animation_frame_1/duration = 1.0
7:11/animation_frame_2/duration = 1.0
7:11/0 = 0
7:11/0/terrain_set = 0
7:11/0/terrain = 7
7:11/0/physics_layer_0/linear_velocity = Vector2(0, 0)
7:11/0/physics_layer_0/angular_velocity = 0.0
7:11/0/terrains_peering_bit/right_side = 7
7:11/0/terrains_peering_bit/bottom_side = 0
7:11/0/terrains_peering_bit/left_side = 7
7:11/0/terrains_peering_bit/top_side = 0
7:11/0/custom_data_0 = 0.5
7:11/0/custom_data_1 = 0.75
8:11/animation_columns = 1
8:11/animation_separation = Vector2i(1, 0)
8:11/animation_speed = 0.25
8:11/animation_frame_0/duration = 1.0
8:11/animation_frame_1/duration = 1.0
8:11/animation_frame_2/duration = 1.0
8:11/0 = 0
8:11/0/terrain_set = 0
8:11/0/terrain = 7
8:11/0/physics_layer_0/linear_velocity = Vector2(0, 0)
8:11/0/physics_layer_0/angular_velocity = 0.0
8:11/0/terrains_peering_bit/right_side = 7
8:11/0/terrains_peering_bit/bottom_side = 7
8:11/0/terrains_peering_bit/left_side = 7
8:11/0/terrains_peering_bit/top_side = 0
8:11/0/custom_data_0 = 0.5
8:11/0/custom_data_1 = 0.75
9:11/animation_columns = 1
9:11/animation_separation = Vector2i(1, 0)
9:11/animation_speed = 0.25
9:11/animation_frame_0/duration = 1.0
9:11/animation_frame_1/duration = 1.0
9:11/animation_frame_2/duration = 1.0
9:11/0 = 0
9:11/0/terrain_set = 0
9:11/0/terrain = 7
9:11/0/physics_layer_0/linear_velocity = Vector2(0, 0)
9:11/0/physics_layer_0/angular_velocity = 0.0
9:11/0/terrains_peering_bit/right_side = 7
9:11/0/terrains_peering_bit/bottom_side = 0
9:11/0/terrains_peering_bit/left_side = 7
9:11/0/terrains_peering_bit/top_side = 7
9:11/0/custom_data_0 = 0.5
9:11/0/custom_data_1 = 0.75
10:11/animation_columns = 1
10:11/animation_separation = Vector2i(1, 0)
10:11/animation_speed = 0.25
10:11/animation_frame_0/duration = 1.0
10:11/animation_frame_1/duration = 1.0
10:11/animation_frame_2/duration = 1.0
10:11/0 = 0
10:11/0/terrain_set = 0
10:11/0/terrain = 7
10:11/0/physics_layer_0/linear_velocity = Vector2(0, 0)
10:11/0/physics_layer_0/angular_velocity = 0.0
10:11/0/terrains_peering_bit/right_side = 7
10:11/0/terrains_peering_bit/bottom_side = 7
10:11/0/terrains_peering_bit/left_side = 0
10:11/0/terrains_peering_bit/top_side = 7
10:11/0/custom_data_0 = 0.5
10:11/0/custom_data_1 = 0.75
11:11/animation_columns = 1
11:11/animation_separation = Vector2i(1, 0)
11:11/animation_speed = 0.25
11:11/animation_frame_0/duration = 1.0
11:11/animation_frame_1/duration = 1.0
11:11/animation_frame_2/duration = 1.0
11:11/0 = 0
11:11/0/terrain_set = 0
11:11/0/terrain = 7
11:11/0/physics_layer_0/linear_velocity = Vector2(0, 0)
11:11/0/physics_layer_0/angular_velocity = 0.0
11:11/0/terrains_peering_bit/right_side = 0
11:11/0/terrains_peering_bit/bottom_side = 7
11:11/0/terrains_peering_bit/left_side = 7
11:11/0/terrains_peering_bit/top_side = 7
11:11/0/custom_data_0 = 0.5
11:11/0/custom_data_1 = 0.75
12:11/animation_columns = 1
12:11/animation_separation = Vector2i(1, 0)
12:11/animation_speed = 0.25
12:11/animation_frame_0/duration = 1.0
12:11/animation_frame_1/duration = 1.0
12:11/animation_frame_2/duration = 1.0
12:11/0 = 0
12:11/0/terrain_set = 0
12:11/0/terrain = 7
12:11/0/physics_layer_0/linear_velocity = Vector2(0, 0)
12:11/0/physics_layer_0/angular_velocity = 0.0
12:11/0/terrains_peering_bit/right_side = 7
12:11/0/terrains_peering_bit/bottom_side = 7
12:11/0/terrains_peering_bit/left_side = 0
12:11/0/terrains_peering_bit/top_side = 0
12:11/0/custom_data_0 = 0.5
12:11/0/custom_data_1 = 0.75
13:11/animation_columns = 1
13:11/animation_separation = Vector2i(1, 0)
13:11/animation_speed = 0.25
13:11/animation_frame_0/duration = 1.0
13:11/animation_frame_1/duration = 1.0
13:11/animation_frame_2/duration = 1.0
13:11/0 = 0
13:11/0/terrain_set = 0
13:11/0/terrain = 7
13:11/0/physics_layer_0/linear_velocity = Vector2(0, 0)
13:11/0/physics_layer_0/angular_velocity = 0.0
13:11/0/terrains_peering_bit/right_side = 0
13:11/0/terrains_peering_bit/bottom_side = 7
13:11/0/terrains_peering_bit/left_side = 7
13:11/0/terrains_peering_bit/top_side = 0
13:11/0/custom_data_0 = 0.5
13:11/0/custom_data_1 = 0.75
14:11/animation_columns = 1
14:11/animation_separation = Vector2i(1, 0)
14:11/animation_speed = 0.25
14:11/animation_frame_0/duration = 1.0
14:11/animation_frame_1/duration = 1.0
14:11/animation_frame_2/duration = 1.0
14:11/0 = 0
14:11/0/terrain_set = 0
14:11/0/terrain = 7
14:11/0/physics_layer_0/linear_velocity = Vector2(0, 0)
14:11/0/physics_layer_0/angular_velocity = 0.0
14:11/0/terrains_peering_bit/right_side = 7
14:11/0/terrains_peering_bit/bottom_side = 0
14:11/0/terrains_peering_bit/left_side = 0
14:11/0/terrains_peering_bit/top_side = 7
14:11/0/custom_data_0 = 0.5
14:11/0/custom_data_1 = 0.75
15:11/animation_columns = 1
15:11/animation_separation = Vector2i(1, 0)
15:11/animation_speed = 0.25
15:11/animation_frame_0/duration = 1.0
15:11/animation_frame_1/duration = 1.0
15:11/animation_frame_2/duration = 1.0
15:11/0 = 0
15:11/0/terrain_set = 0
15:11/0/terrain = 7
15:11/0/physics_layer_0/linear_velocity = Vector2(0, 0)
15:11/0/physics_layer_0/angular_velocity = 0.0
15:11/0/terrains_peering_bit/right_side = 0
15:11/0/terrains_peering_bit/bottom_side = 0
15:11/0/terrains_peering_bit/left_side = 7
15:11/0/terrains_peering_bit/top_side = 7
15:11/0/custom_data_0 = 0.5
15:11/0/custom_data_1 = 0.75
2:6/0 = 0
2:6/0/material = SubResource("ShaderMaterial_5bsop")
2:6/0/terrain_set = 0
2:6/0/terrain = 8
2:6/0/physics_layer_0/linear_velocity = Vector2(0, 0)
2:6/0/physics_layer_0/angular_velocity = 0.0
2:6/0/physics_layer_0/polygon_0/points = PackedVector2Array(-8, -8, 8, -8, 8, 8, -8, 8)
2:6/0/terrains_peering_bit/right_side = 8
2:6/0/terrains_peering_bit/bottom_side = 8
2:6/0/terrains_peering_bit/left_side = 8
2:6/0/terrains_peering_bit/top_side = 8
3:6/0 = 0
3:6/0/terrain_set = 0
3:6/0/terrain = 9
3:6/0/physics_layer_0/linear_velocity = Vector2(0, 0)
3:6/0/physics_layer_0/angular_velocity = 0.0
3:6/0/physics_layer_0/polygon_0/points = PackedVector2Array(-8, -8, 8, -8, 8, 8, -8, 8)
3:6/0/terrains_peering_bit/right_side = 9
3:6/0/terrains_peering_bit/bottom_side = 9
3:6/0/terrains_peering_bit/left_side = 9
3:6/0/terrains_peering_bit/top_side = 9

[sub_resource type="ShaderMaterial" id="ShaderMaterial_u6ucv"]
shader = ExtResource("2_u4bwu")
shader_parameter/u_color_key = null
shader_parameter/u_replacement_color = Color(0, 0, 0, 0)
shader_parameter/tolerance = 0.1

[sub_resource type="ShaderMaterial" id="ShaderMaterial_cy782"]
shader = ExtResource("2_u4bwu")
shader_parameter/u_color_key = null
shader_parameter/u_replacement_color = Color(0, 0, 0, 0)
shader_parameter/tolerance = 0.1

[sub_resource type="ShaderMaterial" id="ShaderMaterial_kdxua"]
shader = ExtResource("2_u4bwu")
shader_parameter/u_color_key = null
shader_parameter/u_replacement_color = Color(0, 0, 0, 0)
shader_parameter/tolerance = 0.1

[sub_resource type="ShaderMaterial" id="ShaderMaterial_026tg"]
shader = ExtResource("2_u4bwu")
shader_parameter/u_color_key = null
shader_parameter/u_replacement_color = Color(0, 0, 0, 0)
shader_parameter/tolerance = 0.1

[sub_resource type="ShaderMaterial" id="ShaderMaterial_i78kl"]
shader = ExtResource("2_u4bwu")
shader_parameter/u_color_key = null
shader_parameter/u_replacement_color = Color(0, 0, 0, 0)
shader_parameter/tolerance = 0.1

[sub_resource type="ShaderMaterial" id="ShaderMaterial_irvku"]
shader = ExtResource("2_u4bwu")
shader_parameter/u_color_key = null
shader_parameter/u_replacement_color = Color(0, 0, 0, 0)
shader_parameter/tolerance = 0.1

[sub_resource type="ShaderMaterial" id="ShaderMaterial_0w5c7"]
shader = ExtResource("2_u4bwu")
shader_parameter/u_color_key = null
shader_parameter/u_replacement_color = Color(0, 0, 0, 0)
shader_parameter/tolerance = 0.1

[sub_resource type="ShaderMaterial" id="ShaderMaterial_38e56"]
shader = ExtResource("2_u4bwu")
shader_parameter/u_color_key = null
shader_parameter/u_replacement_color = Color(0, 0, 0, 0)
shader_parameter/tolerance = 0.1

[sub_resource type="TileSetAtlasSource" id="TileSetAtlasSource_23pv8"]
texture = ExtResource("4_kwpp5")
texture_region_size = Vector2i(32, 32)
2:0/0 = 0
2:0/0/texture_origin = Vector2i(0, 8)
2:0/0/material = SubResource("ShaderMaterial_kdxua")
2:0/0/terrain_set = 1
2:0/0/physics_layer_0/linear_velocity = Vector2(0, 0)
2:0/0/physics_layer_0/angular_velocity = 0.0
2:0/0/custom_data_0 = 1.0
3:0/0 = 0
3:0/0/texture_origin = Vector2i(0, 8)
3:0/0/material = SubResource("ShaderMaterial_026tg")
3:0/0/physics_layer_0/linear_velocity = Vector2(0, 0)
3:0/0/physics_layer_0/angular_velocity = 0.0
3:0/0/custom_data_0 = 1.0
4:0/0 = 0
4:0/0/texture_origin = Vector2i(0, 8)
4:0/0/material = SubResource("ShaderMaterial_i78kl")
4:0/0/terrain_set = 1
4:0/0/physics_layer_0/linear_velocity = Vector2(0, 0)
4:0/0/physics_layer_0/angular_velocity = 0.0
4:0/0/custom_data_0 = 1.0
5:0/0 = 0
5:0/0/texture_origin = Vector2i(0, 8)
5:0/0/material = SubResource("ShaderMaterial_irvku")
5:0/0/terrain_set = 1
5:0/0/physics_layer_0/linear_velocity = Vector2(0, 0)
5:0/0/physics_layer_0/angular_velocity = 0.0
5:0/0/custom_data_0 = 1.0
6:0/0 = 0
6:0/0/texture_origin = Vector2i(0, 8)
6:0/0/material = SubResource("ShaderMaterial_0w5c7")
6:0/0/physics_layer_0/linear_velocity = Vector2(0, 0)
6:0/0/physics_layer_0/angular_velocity = 0.0
6:0/0/custom_data_0 = 1.0
7:0/0 = 0
7:0/0/texture_origin = Vector2i(0, 8)
7:0/0/material = SubResource("ShaderMaterial_38e56")
7:0/0/physics_layer_0/linear_velocity = Vector2(0, 0)
7:0/0/physics_layer_0/angular_velocity = 0.0
7:0/0/custom_data_0 = 1.0
0:0/0 = 0
0:0/0/texture_origin = Vector2i(0, 8)
0:0/0/material = SubResource("ShaderMaterial_u6ucv")
0:0/0/physics_layer_0/linear_velocity = Vector2(0, 0)
0:0/0/physics_layer_0/angular_velocity = 0.0
0:0/0/custom_data_0 = 1.0
1:0/0 = 0
1:0/0/texture_origin = Vector2i(0, 8)
1:0/0/material = SubResource("ShaderMaterial_cy782")
1:0/0/terrain_set = 1
1:0/0/physics_layer_0/linear_velocity = Vector2(0, 0)
1:0/0/physics_layer_0/angular_velocity = 0.0
1:0/0/custom_data_0 = 1.0

[sub_resource type="TileSet" id="TileSet_emn0s"]
physics_layer_0/collision_layer = 1
terrain_set_0/mode = 2
terrain_set_0/terrain_0/name = "Plain"
terrain_set_0/terrain_0/color = Color(0.596078, 0.290196, 0.901961, 1)
terrain_set_0/terrain_1/name = "Grass"
terrain_set_0/terrain_1/color = Color(0.72549, 0.133333, 0.690196, 1)
terrain_set_0/terrain_2/name = "Dirt"
terrain_set_0/terrain_2/color = Color(0.258824, 0.415686, 0.796078, 1)
terrain_set_0/terrain_3/name = "Sand"
terrain_set_0/terrain_3/color = Color(0.105882, 0.541176, 0.541176, 1)
terrain_set_0/terrain_4/name = "Mountain"
terrain_set_0/terrain_4/color = Color(0.0901961, 0.462745, 0.694118, 1)
terrain_set_0/terrain_5/name = "Snow"
terrain_set_0/terrain_5/color = Color(0.184314, 0.152941, 0.054902, 1)
terrain_set_0/terrain_6/name = "Cobble"
terrain_set_0/terrain_6/color = Color(0.352941, 0.509804, 0.121569, 1)
terrain_set_0/terrain_7/name = "Water1"
terrain_set_0/terrain_7/color = Color(0.52549, 0.435294, 0.0666667, 1)
terrain_set_0/terrain_8/name = "transparent"
terrain_set_0/terrain_8/color = Color(0, 0, 0, 1)
terrain_set_0/terrain_9/name = "black"
terrain_set_0/terrain_9/color = Color(1, 1, 1, 1)
terrain_set_1/mode = 2
terrain_set_1/terrain_0/name = "Wall-Top"
terrain_set_1/terrain_0/color = Color(0.913725, 0.207843, 0.337255, 1)
terrain_set_1/terrain_1/name = "Wall-Mid"
terrain_set_1/terrain_1/color = Color(0.745098, 0.117647, 0.568627, 1)
terrain_set_1/terrain_2/name = "Wall-Bottom"
terrain_set_1/terrain_2/color = Color(0.403922, 0.403922, 0.87451, 1)
custom_data_layer_0/name = "walk_speed"
custom_data_layer_0/type = 3
custom_data_layer_1/name = "crop_y_ratio"
custom_data_layer_1/type = 3
sources/0 = SubResource("TileSetAtlasSource_qstm0")
sources/1 = SubResource("TileSetAtlasSource_23pv8")

[node name="main" type="Node2D"]
y_sort_enabled = true
script = ExtResource("1_cx66j")

[node name="Map" type="TileMap" parent="."]
z_index = -50
tile_set = SubResource("TileSet_emn0s")
format = 2
layer_0/name = "BaseGround"
layer_1/name = "Ressources"
layer_1/tile_data = PackedInt32Array()
script = ExtResource("5_4np4m")
metadata/_edit_lock_ = true

[node name="Camera" type="Camera2D" parent="Map" node_paths=PackedStringArray("tilemap")]
script = ExtResource("6_2sxgy")
tilemap = NodePath("..")

[node name="Player" parent="." node_paths=PackedStringArray("tile_map") instance=ExtResource("5_ik3fc")]
script = ExtResource("8_84he5")
tile_map = NodePath("../Map")
skin_texture = ExtResource("9_2k4vs")

[node name="Camera" type="Camera2D" parent="Player" node_paths=PackedStringArray("tilemap")]
zoom = Vector2(2, 2)
drag_horizontal_enabled = true
drag_vertical_enabled = true
script = ExtResource("6_2sxgy")
tilemap = NodePath("../../Map")
type = 1

[node name="Path" type="Node2D" parent="." node_paths=PackedStringArray("player")]
visible = false
script = ExtResource("7_3c064")
player = NodePath("../Player")
metadata/_edit_lock_ = true

[node name="HUD" parent="." instance=ExtResource("11_5gyla")]

[node name="Building" parent="." instance=ExtResource("12_3vj5c")]
position = Vector2(192, 0)
